2021-03-08 07:34:13,610 INFO {POS} {IP-DISABLED} valid: 172.18.0.7:20001@DEFAULT@DEFAULT_GROUP@@providers:com.dubbogo.seata.ProductSvc, region: unknown, msg: client timeout after 15000, last beat: 1615106582975

2021-03-08 07:34:13,638 INFO DEFAULT_GROUP@@providers:com.dubbogo.seata.ProductSvc {SYNC} {IP-DEAD} cluster: DEFAULT, dead ips size: 1, content: [172.18.0.7:20001:unknown:DEFAULT_1.0_false_false_DEFAULT]

2021-03-08 07:34:13,638 INFO [IP-UPDATED] namespace: public, service: DEFAULT_GROUP@@providers:com.dubbogo.seata.ProductSvc, ips: 

2021-03-08 07:34:13,916 INFO DEFAULT_GROUP@@providers:com.dubbogo.seata.ProductSvc {SYNC} {IP-NEW} cluster: DEFAULT, new ips size: 1, content: [172.18.0.7:20001:unknown:DEFAULT_1.0_true_false_DEFAULT]

2021-03-08 07:34:13,916 INFO [IP-UPDATED] namespace: public, service: DEFAULT_GROUP@@providers:com.dubbogo.seata.ProductSvc, ips: 172.18.0.7:20001_true,

